{
    "FunctionName": "cognitoauth",
    "Runtime": "nodejs8.10",
    "Description": "cognitoauth Lambda",
    "Timeout": 10,
    "MemorySize": 128,
    "environment":"Variables={S3_BUCKET=Test}",
    "tags":"Project=5Force,Version=1.0,Cost_Centre=5Force_GmbH"
 }